{
  "stats": {
    "suites": 1,
    "tests": 9,
    "passes": 7,
    "pending": 0,
    "failures": 2,
    "start": "2021-01-04T15:15:35.419Z",
    "end": "2021-01-04T15:19:25.968Z",
    "duration": 230549,
    "testsRegistered": 9,
    "passPercent": 77.77777777777779,
    "pendingPercent": 0,
    "other": 0,
    "hasOther": false,
    "skipped": 0,
    "hasSkipped": false
  },
  "results": [
    {
      "uuid": "8525cfd8-7874-4a25-b8b8-6b7618000a45",
      "title": "",
      "fullFile": "",
      "file": "",
      "beforeHooks": [],
      "afterHooks": [],
      "tests": [],
      "suites": [
        {
          "uuid": "0cc4266c-0eb0-473d-934b-22c4a2e2d972",
          "title": "Register Gagal",
          "fullFile": "C:\\Users\\shella.dwi\\Desktop\\logique-qa-engineer\\tests\\register.js",
          "file": "\\tests\\register.js",
          "beforeHooks": [
            {
              "title": "\"before all\" hook: codeceptjs.beforeSuite in \"Register Gagal\"",
              "fullTitle": "Register Gagal \"before all\" hook: codeceptjs.beforeSuite in \"Register Gagal\"",
              "timedOut": false,
              "duration": 2,
              "state": null,
              "speed": null,
              "pass": false,
              "fail": false,
              "pending": false,
              "context": null,
              "code": "scenario.suiteSetup(suite)",
              "err": {},
              "uuid": "ffbb0ae7-2bfd-4163-ac68-c625965b887a",
              "parentUUID": "0cc4266c-0eb0-473d-934b-22c4a2e2d972",
              "isHook": true,
              "skipped": false
            },
            {
              "title": "\"before each\" hook: codeceptjs.before in \"Register Gagal\"",
              "fullTitle": "Register Gagal \"before each\" hook: codeceptjs.before in \"Register Gagal\"",
              "timedOut": false,
              "duration": 1058,
              "state": null,
              "speed": null,
              "pass": false,
              "fail": false,
              "pending": false,
              "context": null,
              "code": "scenario.setup(suite)",
              "err": {},
              "uuid": "43441d5a-c331-44e3-9055-1c16101575ad",
              "parentUUID": "0cc4266c-0eb0-473d-934b-22c4a2e2d972",
              "isHook": true,
              "skipped": false
            }
          ],
          "afterHooks": [
            {
              "title": "\"after all\" hook: codeceptjs.afterSuite in \"Register Gagal\"",
              "fullTitle": "Register Gagal \"after all\" hook: codeceptjs.afterSuite in \"Register Gagal\"",
              "timedOut": false,
              "duration": 1,
              "state": null,
              "speed": null,
              "pass": false,
              "fail": false,
              "pending": false,
              "context": null,
              "code": "scenario.suiteTeardown(suite)",
              "err": {},
              "uuid": "18700f6b-e36f-4d78-9975-5274744c37c2",
              "parentUUID": "0cc4266c-0eb0-473d-934b-22c4a2e2d972",
              "isHook": true,
              "skipped": false
            },
            {
              "title": "\"after each\" hook: finalize codeceptjs in \"Register Gagal\"",
              "fullTitle": "Register Gagal \"after each\" hook: finalize codeceptjs in \"Register Gagal\"",
              "timedOut": false,
              "duration": 492,
              "state": null,
              "speed": null,
              "pass": false,
              "fail": false,
              "pending": false,
              "context": null,
              "code": "scenario.teardown(suite)",
              "err": {},
              "uuid": "7bd1733f-55f1-4dbf-a299-edcb89fbb2c2",
              "parentUUID": "0cc4266c-0eb0-473d-934b-22c4a2e2d972",
              "isHook": true,
              "skipped": false
            }
          ],
          "tests": [
            {
              "title": "Register Sukses",
              "fullTitle": "Register Gagal: Register Sukses",
              "timedOut": false,
              "duration": 22478,
              "state": "passed",
              "speed": "slow",
              "pass": true,
              "fail": false,
              "pending": false,
              "context": null,
              "code": "I }) => {\n    // Menuju Website\n    I.amOnPage('/');\n    // Mengisi Form\n    I.fillField('#customer_email', faker.internet.email());\n    I.fillField('#customer_firstname', faker.name.firstName());\n    I.fillField('#customer_lastname', faker.name.lastName());\n    I.fillField('#customer_address', faker.address.streetAddress());\n    I.fillField('#customer_city', faker.address.city());\n    I.fillField('#customer_phone', faker.phone.phoneNumber('021########'));\n    I.fillField('#customer_mobile', faker.phone.phoneNumber('08#########'));\n    I.fillField('#customer_ktp', faker.phone.phoneNumber('31730###########'));\n    I.fillField('#customer_sim', faker.phone.phoneNumber('31730###########'));\n    I.fillField('#company_name', faker.company.companyName());\n    I.fillField('#company_phone', faker.phone.phoneNumber('021########'));\n    I.fillField('#company_address', faker.address.streetAddress());\n    I.attachFile('#customer_ktp_file', `/documents/ktp.jpg`);\n    I.click('#agreement');\n    // Click Daftar\n    I.click('#wp-view');\n    // Menunggu Hingga Text muncul\n    I.waitForText('qa-engineer.logique.co.id', process.env.TIMEOUT);",
              "err": {},
              "uuid": "5f28556b-24f7-447f-9e0e-27420d400526",
              "parentUUID": "0cc4266c-0eb0-473d-934b-22c4a2e2d972",
              "isHook": false,
              "skipped": false
            },
            {
              "title": "Register gagal ketika tidak memasukan field email",
              "fullTitle": "Register Gagal: Register gagal ketika tidak memasukan field email",
              "timedOut": false,
              "duration": 10416,
              "state": "passed",
              "speed": "slow",
              "pass": true,
              "fail": false,
              "pending": false,
              "context": null,
              "code": "I }) => {\n    I.amOnPage('/');\n    I.fillField('#customer_firstname', faker.name.firstName());\n    I.fillField('#customer_lastname', faker.name.lastName());\n    I.fillField('#customer_address', faker.address.streetAddress());\n    I.fillField('#customer_city', faker.address.city());\n    I.fillField('#customer_phone', faker.phone.phoneNumber('021########'));\n    I.fillField('#customer_mobile', faker.phone.phoneNumber('08#########'));\n    I.fillField('#customer_ktp', faker.phone.phoneNumber('31730###########'));\n    I.fillField('#customer_sim', faker.phone.phoneNumber('31730###########'));\n    I.fillField('#company_name', faker.company.companyName());\n    I.fillField('#company_phone', faker.phone.phoneNumber('021########'));\n    I.fillField('#company_address', faker.address.streetAddress());\n    I.attachFile('#customer_ktp_file', `/documents/ktp.jpg`);\n    I.click('#agreement');\n    // Click Daftar\n    I.click('#wp-view');\n    // Menunggu Hingga Text muncul\n    I.scrollPageToTop();\n    I.waitForVisible('#customer_email-error', process.env.TIMEOUT);",
              "err": {},
              "uuid": "0c23ed21-342a-4a19-93a9-d619e1c1b45f",
              "parentUUID": "0cc4266c-0eb0-473d-934b-22c4a2e2d972",
              "isHook": false,
              "skipped": false
            },
            {
              "title": "Register Gagal Tidak Mengisi Nama Depan",
              "fullTitle": "Register Gagal: Register Gagal Tidak Mengisi Nama Depan",
              "timedOut": false,
              "duration": 10950,
              "state": "passed",
              "speed": "slow",
              "pass": true,
              "fail": false,
              "pending": false,
              "context": null,
              "code": "I }) => {\n    // Menuju Website\n    I.amOnPage('/');\n    // Mengisi Form\n    I.fillField('#customer_email', faker.internet.email());\n    I.fillField('#customer_lastname', faker.name.lastName());\n    I.fillField('#customer_address', faker.address.streetAddress());\n    I.fillField('#customer_city', faker.address.city());\n    I.fillField('#customer_phone', faker.phone.phoneNumber('021########'));\n    I.fillField('#customer_mobile', faker.phone.phoneNumber('08#########'));\n    I.fillField('#customer_ktp', faker.phone.phoneNumber('31730###########'));\n    I.fillField('#customer_sim', faker.phone.phoneNumber('31730###########'));\n    I.fillField('#company_name', faker.company.companyName());\n    I.fillField('#company_phone', faker.phone.phoneNumber('021########'));\n    I.fillField('#company_address', faker.address.streetAddress());\n    I.attachFile('#customer_ktp_file', `/documents/ktp.jpg`);\n    I.click('#agreement');\n    // Click Daftar\n    I.click('#wp-view');\n    // Menunggu Hingga Text muncul\n    I.waitForVisible('#customer_firstname-error', process.env.TIMEOUT);",
              "err": {},
              "uuid": "1c904538-9a01-4bbc-98c5-c6fdb1ce4384",
              "parentUUID": "0cc4266c-0eb0-473d-934b-22c4a2e2d972",
              "isHook": false,
              "skipped": false
            },
            {
              "title": "Register Gagal Tidak Mengisi Nama Belakang",
              "fullTitle": "Register Gagal: Register Gagal Tidak Mengisi Nama Belakang",
              "timedOut": false,
              "duration": 10698,
              "state": "passed",
              "speed": "slow",
              "pass": true,
              "fail": false,
              "pending": false,
              "context": null,
              "code": "I }) => {\n    // Menuju Website\n    I.amOnPage('/');\n    // Mengisi Form\n    I.fillField('#customer_email', faker.internet.email());\n    I.fillField('#customer_firstname', faker.name.firstName());\n    I.fillField('#customer_address', faker.address.streetAddress());\n    I.fillField('#customer_city', faker.address.city());\n    I.fillField('#customer_phone', faker.phone.phoneNumber('021########'));\n    I.fillField('#customer_mobile', faker.phone.phoneNumber('08#########'));\n    I.fillField('#customer_ktp', faker.phone.phoneNumber('31730###########'));\n    I.fillField('#customer_sim', faker.phone.phoneNumber('31730###########'));\n    I.fillField('#company_name', faker.company.companyName());\n    I.fillField('#company_phone', faker.phone.phoneNumber('021########'));\n    I.fillField('#company_address', faker.address.streetAddress());\n    I.attachFile('#customer_ktp_file', `/documents/ktp.jpg`);\n    I.click('#agreement');\n    // Click Daftar\n    I.click('#wp-view');\n    // Menunggu Hingga Text muncul\n    I.waitForVisible('#customer_lastname-error', process.env.TIMEOUT);",
              "err": {},
              "uuid": "4eabe0e8-dd6e-4f93-8b5a-1faa77beea37",
              "parentUUID": "0cc4266c-0eb0-473d-934b-22c4a2e2d972",
              "isHook": false,
              "skipped": false
            },
            {
              "title": "Register Gagal Tidak Mengisi Alamat",
              "fullTitle": "Register Gagal: Register Gagal Tidak Mengisi Alamat",
              "timedOut": false,
              "duration": 61431,
              "state": "failed",
              "speed": null,
              "pass": false,
              "fail": true,
              "pending": false,
              "context": null,
              "code": "I }) => {\n    // Menuju Website\n    I.amOnPage('/');\n    // Mengisi Form\n    I.fillField('#customer_email', faker.internet.email());\n    I.fillField('#customer_firstname', faker.name.firstName());\n    I.fillField('#customer_lastname', faker.name.lastName());\n    I.fillField('#customer_city', faker.address.city());\n    I.fillField('#customer_phone', faker.phone.phoneNumber('021########'));\n    I.fillField('#customer_mobile', faker.phone.phoneNumber('08#########'));\n    I.fillField('#customer_ktp', faker.phone.phoneNumber('31730###########'));\n    I.fillField('#customer_sim', faker.phone.phoneNumber('31730###########'));\n    I.fillField('#company_name', faker.company.companyName());\n    I.fillField('#company_phone', faker.phone.phoneNumber('021########'));\n    I.fillField('#company_address', faker.address.streetAddress());\n    I.attachFile('#customer_ktp_file', `/documents/ktp.jpg`);\n    I.click('#agreement');\n    // Click Daftar\n    I.click('#wp-view');\n    // Menunggu Hingga Text muncul\n    I.waitForVisible('#customer_address-errors', process.env.TIMEOUT);",
              "err": {
                "message": "Error: element (#customer_address-errors) still not visible after 50 sec\nwaiting for selector `#customer_address-errors` failed: timeout 50000ms exceeded",
                "estack": "Error: element (#customer_address-errors) still not visible after 50 sec\nwaiting for selector `#customer_address-errors` failed: timeout 50000ms exceeded\n    at C:\\Users\\shella.dwi\\Desktop\\logique-qa-engineer\\node_modules\\codeceptjs\\lib\\helper\\Puppeteer.js:1968:13",
                "diff": null
              },
              "uuid": "4696be7e-dd64-440a-8a93-fefa5fdcc435",
              "parentUUID": "0cc4266c-0eb0-473d-934b-22c4a2e2d972",
              "isHook": false,
              "skipped": false
            },
            {
              "title": "Register Gagal Tidak Mengisi Kota",
              "fullTitle": "Register Gagal: Register Gagal Tidak Mengisi Kota",
              "timedOut": false,
              "duration": 10420,
              "state": "passed",
              "speed": "slow",
              "pass": true,
              "fail": false,
              "pending": false,
              "context": null,
              "code": "I }) => {\n    // Menuju Website\n    I.amOnPage('/');\n    // Mengisi Form\n    I.fillField('#customer_email', faker.internet.email());\n    I.fillField('#customer_firstname', faker.name.firstName());\n    I.fillField('#customer_lastname', faker.name.lastName());\n    I.fillField('#customer_address', faker.address.streetAddress());\n    I.fillField('#customer_phone', faker.phone.phoneNumber('021########'));\n    I.fillField('#customer_mobile', faker.phone.phoneNumber('08#########'));\n    I.fillField('#customer_ktp', faker.phone.phoneNumber('31730###########'));\n    I.fillField('#customer_sim', faker.phone.phoneNumber('31730###########'));\n    I.fillField('#company_name', faker.company.companyName());\n    I.fillField('#company_phone', faker.phone.phoneNumber('021########'));\n    I.fillField('#company_address', faker.address.streetAddress());\n    I.attachFile('#customer_ktp_file', `/documents/ktp.jpg`);\n    I.click('#agreement');\n    // Click Daftar\n    I.click('#wp-view');\n    // Menunggu Hingga Text muncul\n    I.waitForVisible('#customer_city-error', process.env.TIMEOUT);",
              "err": {},
              "uuid": "3c665e7d-56bd-4229-bdf7-ff14605cdb1c",
              "parentUUID": "0cc4266c-0eb0-473d-934b-22c4a2e2d972",
              "isHook": false,
              "skipped": false
            },
            {
              "title": "Register Gagal Tidak Mengisi Telepon",
              "fullTitle": "Register Gagal: Register Gagal Tidak Mengisi Telepon",
              "timedOut": false,
              "duration": 26275,
              "state": "passed",
              "speed": "slow",
              "pass": true,
              "fail": false,
              "pending": false,
              "context": null,
              "code": "I }) => {\n    // Menuju Website\n    I.amOnPage('/');\n    // Mengisi Form\n    I.fillField('#customer_email', faker.internet.email());\n    I.fillField('#customer_firstname', faker.name.firstName());\n    I.fillField('#customer_lastname', faker.name.lastName());\n    I.fillField('#customer_address', faker.address.streetAddress());\n    I.fillField('#customer_city', faker.address.city());\n    I.fillField('#customer_mobile', faker.phone.phoneNumber('08#########'));\n    I.fillField('#customer_ktp', faker.phone.phoneNumber('31730###########'));\n    I.fillField('#customer_sim', faker.phone.phoneNumber('31730###########'));\n    I.fillField('#company_name', faker.company.companyName());\n    I.fillField('#company_phone', faker.phone.phoneNumber('021########'));\n    I.fillField('#company_address', faker.address.streetAddress());\n    I.attachFile('#customer_ktp_file', `/documents/ktp.jpg`);\n    I.click('#agreement');\n    // Click Daftar\n    I.click('#wp-view');\n    // Menunggu Hingga Text muncul\n    I.waitForVisible('#customer_phone-error', process.env.TIMEOUT);",
              "err": {},
              "uuid": "27fbff76-c185-4986-b5fe-8ac8d9463b19",
              "parentUUID": "0cc4266c-0eb0-473d-934b-22c4a2e2d972",
              "isHook": false,
              "skipped": false
            },
            {
              "title": "Register Gagal Tidak Mengisi NO KTP",
              "fullTitle": "Register Gagal: Register Gagal Tidak Mengisi NO KTP",
              "timedOut": false,
              "duration": 10277,
              "state": "passed",
              "speed": "slow",
              "pass": true,
              "fail": false,
              "pending": false,
              "context": null,
              "code": "I }) => {\n    // Menuju Website\n    I.amOnPage('/');\n    // Mengisi Form\n    I.fillField('#customer_email', faker.internet.email());\n    I.fillField('#customer_firstname', faker.name.firstName());\n    I.fillField('#customer_lastname', faker.name.lastName());\n    I.fillField('#customer_address', faker.address.streetAddress());\n    I.fillField('#customer_city', faker.address.city());\n    I.fillField('#customer_phone', faker.phone.phoneNumber('021########'));\n    I.fillField('#customer_mobile', faker.phone.phoneNumber('08#########'));\n    I.fillField('#customer_sim', faker.phone.phoneNumber('31730###########'));\n    I.fillField('#company_name', faker.company.companyName());\n    I.fillField('#company_phone', faker.phone.phoneNumber('021########'));\n    I.fillField('#company_address', faker.address.streetAddress());\n    I.attachFile('#customer_ktp_file', `/documents/ktp.jpg`);\n    I.click('#agreement');\n    // Click Daftar\n    I.click('#wp-view');\n    // Menunggu Hingga Text muncul\n    I.waitForVisible('#customer_ktp-error', process.env.TIMEOUT);",
              "err": {},
              "uuid": "6d2032d3-c1bf-47c7-b45d-e577e7fb4d19",
              "parentUUID": "0cc4266c-0eb0-473d-934b-22c4a2e2d972",
              "isHook": false,
              "skipped": false
            },
            {
              "title": "Register Gagal Tidak Mencentang Check Box",
              "fullTitle": "Register Gagal: Register Gagal Tidak Mencentang Check Box",
              "timedOut": false,
              "duration": 52757,
              "state": "failed",
              "speed": null,
              "pass": false,
              "fail": true,
              "pending": false,
              "context": null,
              "code": "I }) => {\n    // Menuju Website\n    I.amOnPage('/');\n    // Mengisi Form\n    I.fillField('#customer_email', faker.internet.email());\n    I.fillField('#customer_firstname', faker.name.firstName());\n    I.fillField('#customer_lastname', faker.name.lastName());\n    I.fillField('#customer_address', faker.address.streetAddress());\n    I.fillField('#customer_city', faker.address.city());\n    I.fillField('#customer_phone', faker.phone.phoneNumber('021########'));\n    I.fillField('#customer_mobile', faker.phone.phoneNumber('08#########'));\n    I.fillField('#customer_ktp', faker.phone.phoneNumber('31730###########'));\n    I.fillField('#customer_sim', faker.phone.phoneNumber('31730###########'));\n    I.fillField('#company_name', faker.company.companyName());\n    I.fillField('#company_phone', faker.phone.phoneNumber('021########'));\n    I.fillField('#company_address', faker.address.streetAddress());\n    I.attachFile('#customer_ktp_file', `/documents/ktp.jpg`);\n    // Click Daftar\n    I.click('#wp-view');\n    // Menunggu Hingga Text muncul\n    I.waitForVisible('#customer_ktp-error', process.env.TIMEOUT);",
              "err": {
                "message": "Error: element (#customer_ktp-error) still not visible after 50 sec\nProtocol error (Runtime.callFunctionOn): Target closed.",
                "estack": "Error: element (#customer_ktp-error) still not visible after 50 sec\nProtocol error (Runtime.callFunctionOn): Target closed.\n    at C:\\Users\\shella.dwi\\Desktop\\logique-qa-engineer\\node_modules\\codeceptjs\\lib\\helper\\Puppeteer.js:1968:13\n    at runMicrotasks (<anonymous>)\n    at processTicksAndRejections (internal/process/task_queues.js:93:5)",
                "diff": null
              },
              "uuid": "d41ad3f0-8eab-4115-bd15-4f7d1b1d7602",
              "parentUUID": "0cc4266c-0eb0-473d-934b-22c4a2e2d972",
              "isHook": false,
              "skipped": false
            }
          ],
          "suites": [],
          "passes": [
            "5f28556b-24f7-447f-9e0e-27420d400526",
            "0c23ed21-342a-4a19-93a9-d619e1c1b45f",
            "1c904538-9a01-4bbc-98c5-c6fdb1ce4384",
            "4eabe0e8-dd6e-4f93-8b5a-1faa77beea37",
            "3c665e7d-56bd-4229-bdf7-ff14605cdb1c",
            "27fbff76-c185-4986-b5fe-8ac8d9463b19",
            "6d2032d3-c1bf-47c7-b45d-e577e7fb4d19"
          ],
          "failures": [
            "4696be7e-dd64-440a-8a93-fefa5fdcc435",
            "d41ad3f0-8eab-4115-bd15-4f7d1b1d7602"
          ],
          "pending": [],
          "skipped": [],
          "duration": 215702,
          "root": false,
          "rootEmpty": false,
          "_timeout": 0
        }
      ],
      "passes": [],
      "failures": [],
      "pending": [],
      "skipped": [],
      "duration": 0,
      "root": true,
      "rootEmpty": true,
      "_timeout": 0
    }
  ],
  "meta": {
    "mocha": {
      "version": "8.1.3"
    },
    "mochawesome": {
      "options": {
        "quiet": false,
        "reportFilename": "mochawesome",
        "saveHtml": true,
        "saveJson": true,
        "consoleReporter": "spec",
        "useInlineDiffs": false,
        "code": true
      },
      "version": "6.2.1"
    },
    "marge": {
      "options": "reportDir=output",
      "version": "5.1.0"
    }
  }
}